…
You can use `group_by()` with `mutate` and `summarize` to perform the
calculations by group, i.e. to get summary statistics, etc. for each set
of values, given a grouping column.

Example: We previously calculated mean height for the entire dataset.
But what if we want mean height for each species?

``` r
starwars %>% 
  group_by(species) %>% 
  dplyr::summarise(height_mean = mean(height, na.rm = TRUE),
                  n = n())
```

    ## # A tibble: 38 × 3
    ##    species   height_mean     n
    ##    <chr>           <dbl> <int>
    ##  1 Aleena            79      1
    ##  2 Besalisk         198      1
    ##  3 Cerean           198      1
    ##  4 Chagrian         196      1
    ##  5 Clawdite         168      1
    ##  6 Droid            131.     6
    ##  7 Dug              112      1
    ##  8 Ewok              88      1
    ##  9 Geonosian        183      1
    ## 10 Gungan           209.     3
    ## # … with 28 more rows
…
