…
------------------------------------------------------------------------

## 2. drop_na

This function will remove all rows with NAs.

``` r
starwars %>% drop_na()
```

    ## # A tibble: 29 × 14
    ##    name     height  mass hair_color skin_color eye_color birth_year sex   gender
    ##    <chr>     <int> <dbl> <chr>      <chr>      <chr>          <dbl> <chr> <chr> 
    ##  1 Luke Sk…    172    77 blond      fair       blue            19   male  mascu…
    ##  2 Darth V…    202   136 none       white      yellow          41.9 male  mascu…
    ##  3 Leia Or…    150    49 brown      light      brown           19   fema… femin…
    ##  4 Owen La…    178   120 brown, gr… light      blue            52   male  mascu…
    ##  5 Beru Wh…    165    75 brown      light      blue            47   fema… femin…
    ##  6 Biggs D…    183    84 black      light      brown           24   male  mascu…
    ##  7 Obi-Wan…    182    77 auburn, w… fair       blue-gray       57   male  mascu…
    ##  8 Anakin …    188    84 blond      fair       blue            41.9 male  mascu…
    ##  9 Chewbac…    228   112 brown      unknown    blue           200   male  mascu…
    ## 10 Han Solo    180    80 brown      fair       brown           29   male  mascu…
    ## # … with 19 more rows, and 5 more variables: homeworld <chr>, species <chr>,
    ## #   films <list>, vehicles <list>, starships <list>
We dropped 59 rows, because they had at least one NA value.

**Be warned:** the `drop_na()` function will drop ALL rows that have
even a single instance of NA. Be very careful when using this, as you
may accidentally delete more rows than you intend.

More often, we want to remove NAs only from certain columns (e.g., we
want to analyze the heights, so we only care about characters whose
heights are provided). In that case, use `filter()`.

``` r
starwars %>% filter(!is.na(height))
```

    ## # A tibble: 81 × 14
    ##    name     height  mass hair_color skin_color eye_color birth_year sex   gender
    ##    <chr>     <int> <dbl> <chr>      <chr>      <chr>          <dbl> <chr> <chr> 
    ##  1 Luke Sk…    172    77 blond      fair       blue            19   male  mascu…
    ##  2 C-3PO       167    75 <NA>       gold       yellow         112   none  mascu…
    ##  3 R2-D2        96    32 <NA>       white, bl… red             33   none  mascu…
    ##  4 Darth V…    202   136 none       white      yellow          41.9 male  mascu…
    ##  5 Leia Or…    150    49 brown      light      brown           19   fema… femin…
    ##  6 Owen La…    178   120 brown, gr… light      blue            52   male  mascu…
    ##  7 Beru Wh…    165    75 brown      light      blue            47   fema… femin…
    ##  8 R5-D4        97    32 <NA>       white, red red             NA   none  mascu…
    ##  9 Biggs D…    183    84 black      light      brown           24   male  mascu…
    ## 10 Obi-Wan…    182    77 auburn, w… fair       blue-gray       57   male  mascu…
    ## # … with 71 more rows, and 5 more variables: homeworld <chr>, species <chr>,
    ## #   films <list>, vehicles <list>, starships <list>
…
------------------------------------------------------------------------

## 3. distinct

This function will remove duplicate entries/values

``` r
starwars %>% distinct()
```

    ## # A tibble: 87 × 14
    ##    name     height  mass hair_color skin_color eye_color birth_year sex   gender
    ##    <chr>     <int> <dbl> <chr>      <chr>      <chr>          <dbl> <chr> <chr> 
    ##  1 Luke Sk…    172    77 blond      fair       blue            19   male  mascu…
    ##  2 C-3PO       167    75 <NA>       gold       yellow         112   none  mascu…
    ##  3 R2-D2        96    32 <NA>       white, bl… red             33   none  mascu…
    ##  4 Darth V…    202   136 none       white      yellow          41.9 male  mascu…
    ##  5 Leia Or…    150    49 brown      light      brown           19   fema… femin…
    ##  6 Owen La…    178   120 brown, gr… light      blue            52   male  mascu…
    ##  7 Beru Wh…    165    75 brown      light      blue            47   fema… femin…
    ##  8 R5-D4        97    32 <NA>       white, red red             NA   none  mascu…
    ##  9 Biggs D…    183    84 black      light      brown           24   male  mascu…
    ## 10 Obi-Wan…    182    77 auburn, w… fair       blue-gray       57   male  mascu…
    ## # … with 77 more rows, and 5 more variables: homeworld <chr>, species <chr>,
    ## #   films <list>, vehicles <list>, starships <list>
…
